%YAML 1.1
%TAG !u! tag:unity3d.com,2011:
--- !u!74 &7400000
AnimationClip:
  m_Name: BattleRingSquash
  serializedVersion: 6
  m_Legacy: 1
  m_Compressed: 0
  m_UseHighQualityCurve: 1
  m_RotationCurves: []
  m_CompressedRotationCurves: []
  m_EulerCurves: []
  m_PositionCurves:
  - curve:
      serializedVersion: 2
      m_Curve:
      - serializedVersion: 2
        time: 0
        value: {x: 0, y: 700, z: 0}
        inSlope: {x: 3.685415E-43, y: 0, z: 0}
        outSlope: {x: 1.310005E-21, y: 0, z: 0}
        tangentMode: 0
      - serializedVersion: 2
        time: 0.1666667
        value: {x: 0, y: -501.9835, z: 0}
        inSlope: {x: 3.685415E-43, y: -19091.56, z: 0}
        outSlope: {x: 1.310005E-21, y: -7200, z: 0}
        tangentMode: 0
      m_PreInfinity: 2
      m_PostInfinity: 2
      m_RotationOrder: 0
    path:
  m_ScaleCurves:
  - curve:
      serializedVersion: 2
      m_Curve:
      - serializedVersion: 2
        time: 0.1666667
        value: {x: 1.6, y: 1.6, z: 1}
        inSlope: {x: 28, y: -12, z: 0}
        outSlope: {x: 28, y: -12, z: 0}
        tangentMode: 0
      - serializedVersion: 2
        time: 0.2166667
        value: {x: 3, y: 1, z: 1}
        inSlope: {x: 7.390798, y: -1.466347, z: 0}
        outSlope: {x: 7.390798, y: -1.466347, z: 0}
        tangentMode: 0
      - serializedVersion: 2
        time: 0.3333333
        value: {x: 1.457853, y: 2.057853, z: 1}
        inSlope: {x: -5.914993, y: 2.656434, z: 0}
        outSlope: {x: -5.914993, y: 2.656434, z: 0}
        tangentMode: 0
      - serializedVersion: 2
        time: 0.45
        value: {x: 1.619835, y: 1.619835, z: 1}
        inSlope: {x: 2.4, y: -0.5999997, z: 0}
        outSlope: {x: Infinity, y: Infinity, z: 0}
        tangentMode: 0
      m_PreInfinity: 2
      m_PostInfinity: 2
      m_RotationOrder: 0
    path:
  m_FloatCurves:
  - curve:
      serializedVersion: 2
      m_Curve:
      - serializedVersion: 2
        time: 0
        value: 62.5
        inSlope: 0
        outSlope: 0
        tangentMode: 0
      - serializedVersion: 2
        time: 0.01666667
        value: 62.5
        inSlope: 0
        outSlope: 0
        tangentMode: 0
      - serializedVersion: 2
        time: 0.03333334
        value: 62.5
        inSlope: 0
        outSlope: 0
        tangentMode: 0
      - serializedVersion: 2
        time: 0.06666667
        value: 62.5
        inSlope: 0
        outSlope: 0
        tangentMode: 0
      - serializedVersion: 2
        time: 0.08333334
        value: 62.5
        inSlope: 0
        outSlope: 0
        tangentMode: 0
      - serializedVersion: 2
        time: 0.1166667
        value: 62.5
        inSlope: 0
        outSlope: 0
        tangentMode: 0
      - serializedVersion: 2
        time: 0.1333333
        value: 62.5
        inSlope: 0
        outSlope: 0
        tangentMode: 0
      - serializedVersion: 2
        time: 0.15
        value: 62.5
        inSlope: 0
        outSlope: 0
        tangentMode: 0
      - serializedVersion: 2
        time: 0.1666667
        value: 62.5
        inSlope: -318.2361
        outSlope: -318.2361
        tangentMode: 0
      - serializedVersion: 2
        time: 0.1833333
        value: 51.89213
        inSlope: -571.3454
        outSlope: -571.3454
        tangentMode: 0
      - serializedVersion: 2
        time: 0.2
        value: 43.45515
        inSlope: -425.4717
        outSlope: -425.4717
        tangentMode: 0
      - serializedVersion: 2
        time: 0.2166667
        value: 37.70974
        inSlope: -287.9806
        outSlope: -287.9806
        tangentMode: 0
      - serializedVersion: 2
        time: 0.2333333
        value: 33.8558
        inSlope: -131.2922
        outSlope: -131.2922
        tangentMode: 0
      - serializedVersion: 2
        time: 0.25
        value: 33.33334
        inSlope: -15.67394
        outSlope: -15.67394
        tangentMode: 0
      - serializedVersion: 2
        time: 0.2833333
        value: 33.33334
        inSlope: 0
        outSlope: 0
        tangentMode: 0
      - serializedVersion: 2
        time: 0.3166667
        value: 33.33334
        inSlope: 1057.82
        outSlope: 1057.82
        tangentMode: 0
      - serializedVersion: 2
        time: 0.3333333
        value: 68.59404
        inSlope: 1210.551
        outSlope: 1210.551
        tangentMode: 0
      - serializedVersion: 2
        time: 0.35
        value: 73.68505
        inSlope: 156.524
        outSlope: 156.524
        tangentMode: 0
      - serializedVersion: 2
        time: 0.3833333
        value: 73.93795
        inSlope: -96.20302
        outSlope: -96.20302
        tangentMode: 0
      - serializedVersion: 2
        time: 0.4333333
        value: 63.9383
        inSlope: -166.1049
        outSlope: -166.1049
        tangentMode: 0
      - serializedVersion: 2
        time: 0.45
        value: 61.73469
        inSlope: 149.878
        outSlope: 149.878
        tangentMode: 0
      - serializedVersion: 2
        time: 0.5
        value: 83.33333
        inSlope: 251.2692
        outSlope: 251.2692
        tangentMode: 0
      - serializedVersion: 2
        time: 0.5166667
        value: 84.50942
        inSlope: -34.71074
        outSlope: -34.71074
        tangentMode: 0
      - serializedVersion: 2
        time: 0.6
        value: 72.84382
        inSlope: -161.0484
        outSlope: -161.0484
        tangentMode: 0
      - serializedVersion: 2
        time: 0.6333333
        value: 66.77351
        inSlope: -163.3854
        outSlope: -163.3854
        tangentMode: 0
      - serializedVersion: 2
        time: 0.65
        value: 64.36249
        inSlope: -128.2051
        outSlope: -128.2051
        tangentMode: 0
      - serializedVersion: 2
        time: 0.6666667
        value: 62.5
        inSlope: -55.87449
        outSlope: -55.87449
        tangentMode: 0
      - serializedVersion: 2
        time: 0.6833333
        value: 62.5
        inSlope: -22.95939
        outSlope: -22.95939
        tangentMode: 0
      - serializedVersion: 2
        time: 0.7
        value: 61.73469
        inSlope: -41.17502
        outSlope: -41.17502
        tangentMode: 0
      - serializedVersion: 2
        time: 0.9
        value: 54.44844
        inSlope: -12.68005
        outSlope: -12.68005
        tangentMode: 0
      - serializedVersion: 2
        time: 1
        value: 55.55555
        inSlope: 15.29145
        outSlope: 15.29145
        tangentMode: 0
      - serializedVersion: 2
        time: 1.016667
        value: 55.88075
        inSlope: 21.52997
        outSlope: 21.52997
        tangentMode: 0
      - serializedVersion: 2
        time: 1.083333
        value: 57.45063
        inSlope: 24.96926
        outSlope: 24.96926
        tangentMode: 0
      - serializedVersion: 2
        time: 1.1
        value: 57.89047
        inSlope: 21.43278
        outSlope: 21.43278
        tangentMode: 0
      - serializedVersion: 2
        time: 1.333333
        value: 61.73469
        inSlope: 16.47522
        outSlope: 16.47522
        tangentMode: 0
      m_PreInfinity: 2
      m_PostInfinity: 2
      m_RotationOrder: 0
    attribute: worldToLocal.e00
    path:
    classID: 114
    script: {fileID: 11500000, guid: eff605db9f989ff49bab2d6acf87be94, type: 3}
  - curve:
      serializedVersion: 2
      m_Curve:
      - serializedVersion: 2
        time: 0
        value: 62.5
        inSlope: 0
        outSlope: 0
        tangentMode: 0
      - serializedVersion: 2
        time: 0.01666667
        value: 62.5
        inSlope: 0
        outSlope: 0
        tangentMode: 0
      - serializedVersion: 2
        time: 0.03333334
        value: 62.5
        inSlope: 0
        outSlope: 0
        tangentMode: 0
      - serializedVersion: 2
        time: 0.06666667
        value: 62.5
        inSlope: 0
        outSlope: 0
        tangentMode: 0
      - serializedVersion: 2
        time: 0.08333334
        value: 62.5
        inSlope: 0
        outSlope: 0
        tangentMode: 0
      - serializedVersion: 2
        time: 0.1166667
        value: 62.5
        inSlope: 0
        outSlope: 0
        tangentMode: 0
      - serializedVersion: 2
        time: 0.1333333
        value: 62.5
        inSlope: 0
        outSlope: 0
        tangentMode: 0
      - serializedVersion: 2
        time: 0.15
        value: 62.5
        inSlope: 0
        outSlope: 0
        tangentMode: 0
      - serializedVersion: 2
        time: 0.1666667
        value: 62.5
        inSlope: 189.02
        outSlope: 189.02
        tangentMode: 0
      - serializedVersion: 2
        time: 0.1833333
        value: 68.80067
        inSlope: 467.9755
        outSlope: 467.9755
        tangentMode: 0
      - serializedVersion: 2
        time: 0.2
        value: 78.09918
        inSlope: 613.0347
        outSlope: 613.0347
        tangentMode: 0
      - serializedVersion: 2
        time: 0.2166667
        value: 89.23515
        inSlope: 608.8633
        outSlope: 608.8633
        tangentMode: 0
      - serializedVersion: 2
        time: 0.2333333
        value: 98.39462
        inSlope: 322.9454
        outSlope: 322.9454
        tangentMode: 0
      - serializedVersion: 2
        time: 0.25
        value: 100
        inSlope: 48.16132
        outSlope: 48.16132
        tangentMode: 0
      - serializedVersion: 2
        time: 0.2833333
        value: 100
        inSlope: 0
        outSlope: 0
        tangentMode: 0
      - serializedVersion: 2
        time: 0.3166667
        value: 100
        inSlope: -1542.168
        outSlope: -1542.168
        tangentMode: 0
      - serializedVersion: 2
        time: 0.3333333
        value: 48.59435
        inSlope: -1564.281
        outSlope: -1564.281
        tangentMode: 0
      - serializedVersion: 2
        time: 0.35
        value: 47.85727
        inSlope: 23.0846
        outSlope: 23.0846
        tangentMode: 0
      - serializedVersion: 2
        time: 0.3833333
        value: 50.8704
        inSlope: 138.6969
        outSlope: 138.6969
        tangentMode: 0
      - serializedVersion: 2
        time: 0.4333333
        value: 60.22039
        inSlope: 138.9288
        outSlope: 138.9288
        tangentMode: 0
      - serializedVersion: 2
        time: 0.45
        value: 61.73469
        inSlope: -16.36232
        outSlope: -16.36232
        tangentMode: 0
      - serializedVersion: 2
        time: 0.5
        value: 55.55556
        inSlope: -66.59221
        outSlope: -66.59221
        tangentMode: 0
      - serializedVersion: 2
        time: 0.5166667
        value: 55.39553
        inSlope: 16.48829
        outSlope: 16.48829
        tangentMode: 0
      - serializedVersion: 2
        time: 0.6
        value: 58.94373
        inSlope: 53.15754
        outSlope: 53.15754
        tangentMode: 0
      - serializedVersion: 2
        time: 0.6333333
        value: 61.06828
        inSlope: 57.63496
        outSlope: 57.63496
        tangentMode: 0
      - serializedVersion: 2
        time: 0.65
        value: 61.92717
        inSlope: 42.95148
        outSlope: 42.95148
        tangentMode: 0
      - serializedVersion: 2
        time: 0.6666667
        value: 62.5
        inSlope: 5.705167
        outSlope: 5.705167
        tangentMode: 0
      - serializedVersion: 2
        time: 0.7
        value: 61.73469
        inSlope: -11.47969
        outSlope: -11.47969
        tangentMode: 0
      - serializedVersion: 2
        time: 1.333333
        value: 61.73469
        inSlope: 0
        outSlope: 0
        tangentMode: 0
      m_PreInfinity: 2
      m_PostInfinity: 2
      m_RotationOrder: 0
    attribute: worldToLocal.e11
    path:
    classID: 114
    script: {fileID: 11500000, guid: eff605db9f989ff49bab2d6acf87be94, type: 3}
  - curve:
      serializedVersion: 2
      m_Curve:
      - serializedVersion: 2
        time: 0
        value: -437.5
        inSlope: 739.5874
        outSlope: 739.5874
        tangentMode: 0
      - serializedVersion: 2
        time: 0.05
        value: -400.5206
        inSlope: 2659.257
        outSlope: 2659.257
        tangentMode: 0
      - serializedVersion: 2
        time: 0.1333333
        value: -18.94344
        inSlope: 6806.362
        outSlope: 6806.362
        tangentMode: 0
      - serializedVersion: 2
        time: 0.15
        value: 131.6198
        inSlope: 9980.494
        outSlope: 9980.494
        tangentMode: 0
      - serializedVersion: 2
        time: 0.1666667
        value: 313.7397
        inSlope: 6412.444
        outSlope: 6412.444
        tangentMode: 0
      - serializedVersion: 2
        time: 0.1833333
        value: 345.368
        inSlope: 2349.16
        outSlope: 2349.16
        tangentMode: 0
      - serializedVersion: 2
        time: 0.2
        value: 392.045
        inSlope: 3077.334
        outSlope: 3077.334
        tangentMode: 0
      - serializedVersion: 2
        time: 0.2166667
        value: 447.9457
        inSlope: 2487.589
        outSlope: 2487.589
        tangentMode: 0
      - serializedVersion: 2
        time: 0.25
        value: 501.9835
        inSlope: 810.5659
        outSlope: 810.5659
        tangentMode: 0
      - serializedVersion: 2
        time: 0.2833333
        value: 501.9835
        inSlope: -2580.478
        outSlope: -2580.478
        tangentMode: 0
      - serializedVersion: 2
        time: 0.3333333
        value: 243.9356
        inSlope: -2691.479
        outSlope: -2691.479
        tangentMode: 0
      - serializedVersion: 2
        time: 0.35
        value: 240.2355
        inSlope: 115.8807
        outSlope: 115.8807
        tangentMode: 0
      - serializedVersion: 2
        time: 0.3833333
        value: 255.361
        inSlope: 696.2355
        outSlope: 696.2355
        tangentMode: 0
      - serializedVersion: 2
        time: 0.4333333
        value: 302.2964
        inSlope: 697.4
        outSlope: 697.4
        tangentMode: 0
      - serializedVersion: 2
        time: 0.45
        value: 309.8979
        inSlope: 456.0923
        outSlope: 456.0923
        tangentMode: 0
      m_PreInfinity: 2
      m_PostInfinity: 2
      m_RotationOrder: 0
    attribute: worldToLocal.e13
    path:
    classID: 114
    script: {fileID: 11500000, guid: eff605db9f989ff49bab2d6acf87be94, type: 3}
  m_PPtrCurves: []
  m_SampleRate: 60
  m_WrapMode: 1
  m_Bounds:
    m_Center: {x: 0, y: 0, z: 0}
    m_Extent: {x: 0, y: 0, z: 0}
  m_ClipBindingConstant:
    genericBindings: []
    pptrCurveMapping: []
  m_AnimationClipSettings:
    serializedVersion: 2
    m_AdditiveReferencePoseClip: {fileID: 0}
    m_AdditiveReferencePoseTime: 0
    m_StartTime: 0
    m_StopTime: 1
    m_OrientationOffsetY: 0
    m_Level: 0
    m_CycleOffset: 0
    m_HasAdditiveReferencePose: 0
    m_LoopTime: 0
    m_LoopBlend: 0
    m_LoopBlendOrientation: 0
    m_LoopBlendPositionY: 0
    m_LoopBlendPositionXZ: 0
    m_KeepOriginalOrientation: 0
    m_KeepOriginalPositionY: 1
    m_KeepOriginalPositionXZ: 0
    m_HeightFromFeet: 0
    m_Mirror: 0
  m_EditorCurves: []
  m_EulerEditorCurves: []
  m_HasGenericRootTransform: 0
  m_HasMotionFloatCurves: 0
  m_GenerateMotionCurves: 0
  m_Events: []
