%YAML 1.1
%TAG !u! tag:unity3d.com,2011:
--- !u!74 &7400000
AnimationClip:
  m_ObjectHideFlags: 0
  m_CorrespondingSourceObject: {fileID: 0}
  m_PrefabInstance: {fileID: 0}
  m_PrefabAsset: {fileID: 0}
  m_Name: Take 001_28
  serializedVersion: 6
  m_Legacy: 1
  m_Compressed: 0
  m_UseHighQualityCurve: 1
  m_RotationCurves:
  - curve:
      serializedVersion: 2
      m_Curve:
      - serializedVersion: 3
        time: 0
        value: {x: 0.4664169, y: 0.5314652, z: 0.5314652, w: -0.4664169}
        inSlope: {x: -0.336973, y: -0.2965325, z: 0.2895426, w: -0.3308379}
        outSlope: {x: -0.336973, y: -0.2965325, z: 0.2895426, w: -0.3308379}
        tangentMode: 0
        weightedMode: 0
        inWeight: {x: 0.33333334, y: 0.33333334, z: 0.33333334, w: 0.33333334}
        outWeight: {x: 0.33333334, y: 0.33333334, z: 0.33333334, w: 0.33333334}
      - serializedVersion: 3
        time: 0.8333334
        value: {x: 0.1381962, y: 0.227054, z: 0.6934708, w: -0.6696615}
        inSlope: {x: -0.4356892, y: -0.4207318, z: 0.08682491, w: -0.1426515}
        outSlope: {x: -0.4356892, y: -0.4207318, z: 0.08682491, w: -0.1426515}
        tangentMode: 0
        weightedMode: 0
        inWeight: {x: 0.33333334, y: 0.33333334, z: 0.33333334, w: 0.33333334}
        outWeight: {x: 0.33333334, y: 0.33333334, z: 0.33333334, w: 0.33333334}
      - serializedVersion: 3
        time: 2.066667
        value: {x: -0.3864588, y: -0.3063138, z: 0.5921568, w: -0.6373161}
        inSlope: {x: -0.3720375, y: -0.4004081, z: -0.2428018, w: 0.1924496}
        outSlope: {x: -0.3720375, y: -0.4004081, z: -0.2428018, w: 0.1924496}
        tangentMode: 0
        weightedMode: 0
        inWeight: {x: 0.33333334, y: 0.33333334, z: 0.33333334, w: 0.33333334}
        outWeight: {x: 0.33333334, y: 0.33333334, z: 0.33333334, w: 0.33333334}
      - serializedVersion: 3
        time: 3.3
        value: {x: -0.6904246, y: -0.6647597, z: 0.1526887, w: -0.2410284}
        inSlope: {x: -0.09593019, y: -0.1514314, z: -0.4337749, w: 0.4176516}
        outSlope: {x: -0.09593019, y: -0.1514314, z: -0.4337749, w: 0.4176516}
        tangentMode: 0
        weightedMode: 0
        inWeight: {x: 0.33333334, y: 0.33333334, z: 0.33333334, w: 0.33333334}
        outWeight: {x: 0.33333334, y: 0.33333334, z: 0.33333334, w: 0.33333334}
      - serializedVersion: 3
        time: 4.533334
        value: {x: -0.6001204, y: -0.6435912, z: -0.3739729, w: 0.2928996}
        inSlope: {x: 0.2349538, y: 0.1840235, z: -0.3770402, w: 0.4043481}
        outSlope: {x: 0.2349538, y: 0.1840235, z: -0.3770402, w: 0.4043481}
        tangentMode: 0
        weightedMode: 0
        inWeight: {x: 0.33333334, y: 0.33333334, z: 0.33333334, w: 0.33333334}
        outWeight: {x: 0.33333334, y: 0.33333334, z: 0.33333334, w: 0.33333334}
      - serializedVersion: 3
        time: 5
        value: {x: -0.4664169, y: -0.5314652, z: -0.5314652, w: 0.4664169}
        inSlope: {x: 0.3308336, y: 0.2895334, z: -0.2965268, w: 0.3369704}
        outSlope: {x: 0.3308336, y: 0.2895334, z: -0.2965268, w: 0.3369704}
        tangentMode: 0
        weightedMode: 0
        inWeight: {x: 0.33333334, y: 0.33333334, z: 0.33333334, w: 0.33333334}
        outWeight: {x: 0.33333334, y: 0.33333334, z: 0.33333334, w: 0.33333334}
      m_PreInfinity: 2
      m_PostInfinity: 2
      m_RotationOrder: 0
    path: 
  m_CompressedRotationCurves: []
  m_EulerCurves: []
  m_PositionCurves:
  - curve:
      serializedVersion: 2
      m_Curve:
      - serializedVersion: 3
        time: 0
        value: {x: -720.4225, y: 83.24786, z: -161.0465}
        inSlope: {x: 0, y: 0, z: 0}
        outSlope: {x: 0, y: 0, z: 0}
        tangentMode: 0
        weightedMode: 0
        inWeight: {x: 0.33333334, y: 0.33333334, z: 0.33333334}
        outWeight: {x: 0.33333334, y: 0.33333334, z: 0.33333334}
      - serializedVersion: 3
        time: 5
        value: {x: -720.4225, y: 83.24786, z: -161.0465}
        inSlope: {x: 0, y: 0, z: 0}
        outSlope: {x: 0, y: 0, z: 0}
        tangentMode: 0
        weightedMode: 0
        inWeight: {x: 0.33333334, y: 0.33333334, z: 0.33333334}
        outWeight: {x: 0.33333334, y: 0.33333334, z: 0.33333334}
      m_PreInfinity: 2
      m_PostInfinity: 2
      m_RotationOrder: 0
    path: 
  m_ScaleCurves:
  - curve:
      serializedVersion: 2
      m_Curve:
      - serializedVersion: 3
        time: 0
        value: {x: 1, y: 1, z: 1}
        inSlope: {x: 0.04675626, y: 0.04675626, z: 0.04675626}
        outSlope: {x: 0.04675626, y: 0.04675626, z: 0.04675626}
        tangentMode: 0
        weightedMode: 0
        inWeight: {x: 0.33333334, y: 0.33333334, z: 0.33333334}
        outWeight: {x: 0.33333334, y: 0.33333334, z: 0.33333334}
      - serializedVersion: 3
        time: 0.3333333
        value: {x: 1.029069, y: 1.029069, z: 1.029069}
        inSlope: {x: -0.1839298, y: -0.1839298, z: -0.1839298}
        outSlope: {x: -0.1839298, y: -0.1839298, z: -0.1839298}
        tangentMode: 0
        weightedMode: 0
        inWeight: {x: 0.33333334, y: 0.33333334, z: 0.33333334}
        outWeight: {x: 0.33333334, y: 0.33333334, z: 0.33333334}
      - serializedVersion: 3
        time: 0.5666667
        value: {x: 1.005666, y: 1.005666, z: 1.005666}
        inSlope: {x: 0.1487214, y: 0.1487214, z: 0.1487214}
        outSlope: {x: 0.1487214, y: 0.1487214, z: 0.1487214}
        tangentMode: 0
        weightedMode: 0
        inWeight: {x: 0.33333334, y: 0.33333334, z: 0.33333334}
        outWeight: {x: 0.33333334, y: 0.33333334, z: 0.33333334}
      - serializedVersion: 3
        time: 0.8333334
        value: {x: 1.029069, y: 1.029069, z: 1.029069}
        inSlope: {x: -0.1839298, y: -0.1839298, z: -0.1839298}
        outSlope: {x: -0.1839298, y: -0.1839298, z: -0.1839298}
        tangentMode: 0
        weightedMode: 0
        inWeight: {x: 0.33333334, y: 0.33333334, z: 0.33333334}
        outWeight: {x: 0.33333334, y: 0.33333334, z: 0.33333334}
      - serializedVersion: 3
        time: 1.066667
        value: {x: 1.005666, y: 1.005666, z: 1.005666}
        inSlope: {x: 0.1487215, y: 0.1487215, z: 0.1487215}
        outSlope: {x: 0.1487215, y: 0.1487215, z: 0.1487215}
        tangentMode: 0
        weightedMode: 0
        inWeight: {x: 0.33333334, y: 0.33333334, z: 0.33333334}
        outWeight: {x: 0.33333334, y: 0.33333334, z: 0.33333334}
      - serializedVersion: 3
        time: 1.333333
        value: {x: 1.029069, y: 1.029069, z: 1.029069}
        inSlope: {x: -0.1839296, y: -0.1839296, z: -0.1839296}
        outSlope: {x: -0.1839296, y: -0.1839296, z: -0.1839296}
        tangentMode: 0
        weightedMode: 0
        inWeight: {x: 0.33333334, y: 0.33333334, z: 0.33333334}
        outWeight: {x: 0.33333334, y: 0.33333334, z: 0.33333334}
      - serializedVersion: 3
        time: 1.566667
        value: {x: 1.005666, y: 1.005666, z: 1.005666}
        inSlope: {x: 0.1487212, y: 0.1487212, z: 0.1487212}
        outSlope: {x: 0.1487212, y: 0.1487212, z: 0.1487212}
        tangentMode: 0
        weightedMode: 0
        inWeight: {x: 0.33333334, y: 0.33333334, z: 0.33333334}
        outWeight: {x: 0.33333334, y: 0.33333334, z: 0.33333334}
      - serializedVersion: 3
        time: 1.833333
        value: {x: 1.029069, y: 1.029069, z: 1.029069}
        inSlope: {x: -0.1839296, y: -0.1839296, z: -0.1839296}
        outSlope: {x: -0.1839296, y: -0.1839296, z: -0.1839296}
        tangentMode: 0
        weightedMode: 0
        inWeight: {x: 0.33333334, y: 0.33333334, z: 0.33333334}
        outWeight: {x: 0.33333334, y: 0.33333334, z: 0.33333334}
      - serializedVersion: 3
        time: 2.066667
        value: {x: 1.005666, y: 1.005666, z: 1.005666}
        inSlope: {x: 0.1487215, y: 0.1487215, z: 0.1487215}
        outSlope: {x: 0.1487215, y: 0.1487215, z: 0.1487215}
        tangentMode: 0
        weightedMode: 0
        inWeight: {x: 0.33333334, y: 0.33333334, z: 0.33333334}
        outWeight: {x: 0.33333334, y: 0.33333334, z: 0.33333334}
      - serializedVersion: 3
        time: 2.333333
        value: {x: 1.029069, y: 1.029069, z: 1.029069}
        inSlope: {x: -0.18393, y: -0.18393, z: -0.18393}
        outSlope: {x: -0.18393, y: -0.18393, z: -0.18393}
        tangentMode: 0
        weightedMode: 0
        inWeight: {x: 0.33333334, y: 0.33333334, z: 0.33333334}
        outWeight: {x: 0.33333334, y: 0.33333334, z: 0.33333334}
      - serializedVersion: 3
        time: 2.566667
        value: {x: 1.005666, y: 1.005666, z: 1.005666}
        inSlope: {x: 0.1487215, y: 0.1487215, z: 0.1487215}
        outSlope: {x: 0.1487215, y: 0.1487215, z: 0.1487215}
        tangentMode: 0
        weightedMode: 0
        inWeight: {x: 0.33333334, y: 0.33333334, z: 0.33333334}
        outWeight: {x: 0.33333334, y: 0.33333334, z: 0.33333334}
      - serializedVersion: 3
        time: 2.833333
        value: {x: 1.029069, y: 1.029069, z: 1.029069}
        inSlope: {x: -0.18393, y: -0.18393, z: -0.18393}
        outSlope: {x: -0.18393, y: -0.18393, z: -0.18393}
        tangentMode: 0
        weightedMode: 0
        inWeight: {x: 0.33333334, y: 0.33333334, z: 0.33333334}
        outWeight: {x: 0.33333334, y: 0.33333334, z: 0.33333334}
      - serializedVersion: 3
        time: 3.066667
        value: {x: 1.005666, y: 1.005666, z: 1.005666}
        inSlope: {x: 0.1487215, y: 0.1487215, z: 0.1487215}
        outSlope: {x: 0.1487215, y: 0.1487215, z: 0.1487215}
        tangentMode: 0
        weightedMode: 0
        inWeight: {x: 0.33333334, y: 0.33333334, z: 0.33333334}
        outWeight: {x: 0.33333334, y: 0.33333334, z: 0.33333334}
      - serializedVersion: 3
        time: 3.333333
        value: {x: 1.029069, y: 1.029069, z: 1.029069}
        inSlope: {x: -0.18393, y: -0.18393, z: -0.18393}
        outSlope: {x: -0.18393, y: -0.18393, z: -0.18393}
        tangentMode: 0
        weightedMode: 0
        inWeight: {x: 0.33333334, y: 0.33333334, z: 0.33333334}
        outWeight: {x: 0.33333334, y: 0.33333334, z: 0.33333334}
      - serializedVersion: 3
        time: 3.566667
        value: {x: 1.005666, y: 1.005666, z: 1.005666}
        inSlope: {x: 0.1487215, y: 0.1487215, z: 0.1487215}
        outSlope: {x: 0.1487215, y: 0.1487215, z: 0.1487215}
        tangentMode: 0
        weightedMode: 0
        inWeight: {x: 0.33333334, y: 0.33333334, z: 0.33333334}
        outWeight: {x: 0.33333334, y: 0.33333334, z: 0.33333334}
      - serializedVersion: 3
        time: 3.833333
        value: {x: 1.029069, y: 1.029069, z: 1.029069}
        inSlope: {x: -0.18393, y: -0.18393, z: -0.18393}
        outSlope: {x: -0.18393, y: -0.18393, z: -0.18393}
        tangentMode: 0
        weightedMode: 0
        inWeight: {x: 0.33333334, y: 0.33333334, z: 0.33333334}
        outWeight: {x: 0.33333334, y: 0.33333334, z: 0.33333334}
      - serializedVersion: 3
        time: 4.066667
        value: {x: 1.005666, y: 1.005666, z: 1.005666}
        inSlope: {x: 0.1487215, y: 0.1487215, z: 0.1487215}
        outSlope: {x: 0.1487215, y: 0.1487215, z: 0.1487215}
        tangentMode: 0
        weightedMode: 0
        inWeight: {x: 0.33333334, y: 0.33333334, z: 0.33333334}
        outWeight: {x: 0.33333334, y: 0.33333334, z: 0.33333334}
      - serializedVersion: 3
        time: 4.333333
        value: {x: 1.029069, y: 1.029069, z: 1.029069}
        inSlope: {x: -0.18393, y: -0.18393, z: -0.18393}
        outSlope: {x: -0.18393, y: -0.18393, z: -0.18393}
        tangentMode: 0
        weightedMode: 0
        inWeight: {x: 0.33333334, y: 0.33333334, z: 0.33333334}
        outWeight: {x: 0.33333334, y: 0.33333334, z: 0.33333334}
      - serializedVersion: 3
        time: 4.566667
        value: {x: 1.005666, y: 1.005666, z: 1.005666}
        inSlope: {x: 0.1487215, y: 0.1487215, z: 0.1487215}
        outSlope: {x: 0.1487215, y: 0.1487215, z: 0.1487215}
        tangentMode: 0
        weightedMode: 0
        inWeight: {x: 0.33333334, y: 0.33333334, z: 0.33333334}
        outWeight: {x: 0.33333334, y: 0.33333334, z: 0.33333334}
      - serializedVersion: 3
        time: 4.833333
        value: {x: 1.029069, y: 1.029069, z: 1.029069}
        inSlope: {x: -0.18393, y: -0.18393, z: -0.18393}
        outSlope: {x: -0.18393, y: -0.18393, z: -0.18393}
        tangentMode: 0
        weightedMode: 0
        inWeight: {x: 0.33333334, y: 0.33333334, z: 0.33333334}
        outWeight: {x: 0.33333334, y: 0.33333334, z: 0.33333334}
      - serializedVersion: 3
        time: 5
        value: {x: 1, y: 1, z: 1}
        inSlope: {x: -0.06027737, y: -0.06027737, z: -0.06027737}
        outSlope: {x: -0.06027737, y: -0.06027737, z: -0.06027737}
        tangentMode: 0
        weightedMode: 0
        inWeight: {x: 0.33333334, y: 0.33333334, z: 0.33333334}
        outWeight: {x: 0.33333334, y: 0.33333334, z: 0.33333334}
      m_PreInfinity: 2
      m_PostInfinity: 2
      m_RotationOrder: 0
    path: 
  m_FloatCurves: []
  m_PPtrCurves: []
  m_SampleRate: 30
  m_WrapMode: 2
  m_Bounds:
    m_Center: {x: -0.001800537, y: -2.144745, z: -0.001739502}
    m_Extent: {x: 331.5521, y: 62.99332, z: 331.5554}
  m_ClipBindingConstant:
    genericBindings: []
    pptrCurveMapping: []
  m_AnimationClipSettings:
    serializedVersion: 2
    m_AdditiveReferencePoseClip: {fileID: 0}
    m_AdditiveReferencePoseTime: 0
    m_StartTime: 0
    m_StopTime: 1
    m_OrientationOffsetY: 0
    m_Level: 0
    m_CycleOffset: 0
    m_HasAdditiveReferencePose: 0
    m_LoopTime: 0
    m_LoopBlend: 0
    m_LoopBlendOrientation: 0
    m_LoopBlendPositionY: 0
    m_LoopBlendPositionXZ: 0
    m_KeepOriginalOrientation: 0
    m_KeepOriginalPositionY: 1
    m_KeepOriginalPositionXZ: 0
    m_HeightFromFeet: 0
    m_Mirror: 0
  m_EditorCurves: []
  m_EulerEditorCurves: []
  m_HasGenericRootTransform: 0
  m_HasMotionFloatCurves: 0
  m_Events: []
