%YAML 1.1
%TAG !u! tag:unity3d.com,2011:
--- !u!134 &13400000
PhysicMaterial:
  m_ObjectHideFlags: 0
  m_CorrespondingSourceObject: {fileID: 0}
  m_PrefabInstance: {fileID: 0}
  m_PrefabAsset: {fileID: 0}
  m_Name: Default (Instance)_44
  dynamicFriction: 0.6
  staticFriction: 0.6
  bounciness: 0
  frictionCombine: 0
  bounceCombine: 0
