%YAML 1.1
%TAG !u! tag:unity3d.com,2011:
--- !u!114 &11400000
MonoBehaviour:
  m_GameObject: {fileID: 0}
  m_Enabled: 1
  m_EditorHideFlags: 0
  m_Script: {fileID: 11500000, guid: 352c61ef6035fcf4a852fb395449cec1, type: 3}
  m_Name: CardArtAtlas02UguiMap
  m_EditorClassIdentifier:
  spriteMap:
    _keys:
    - Building_Autoplucker
    - Building_FruitCake
    - Creature_BanshePrincess
    - Creature_BansheQueen
    - Creature_BogbansheAngel
    - Creature_BogBum
    - Creature_BogfrogBomb
    - Creature_ChadBear
    - Creature_Cottonpult
    - Creature_DrStuffenstein
    - Creature_FlySwatter
    - Creature_FuriousChick
    - Creature_FuriousHen
    - Creature_FuriousRooster
    - Creature_ManWitch
    - Creature_MusicMallard
    - Creature_PapercutTiger
    - Creature_Unicyclops
    - Creature_VampBaldMan
    - Creature_VampCactus
    - Creature_VampCorn
    - Creature_VampGhost
    - Creature_VampMarshmallow
    - Spell_BlackholePendant
    - Spell_BloodTransfusion
    _values:
    - {fileID: 21300018, guid: e3a313a1e168e3341b452acb65cf7287, type: 3}
    - {fileID: 21300046, guid: e3a313a1e168e3341b452acb65cf7287, type: 3}
    - {fileID: 21300008, guid: e3a313a1e168e3341b452acb65cf7287, type: 3}
    - {fileID: 21300012, guid: e3a313a1e168e3341b452acb65cf7287, type: 3}
    - {fileID: 21300000, guid: e3a313a1e168e3341b452acb65cf7287, type: 3}
    - {fileID: 21300026, guid: e3a313a1e168e3341b452acb65cf7287, type: 3}
    - {fileID: 21300014, guid: e3a313a1e168e3341b452acb65cf7287, type: 3}
    - {fileID: 21300048, guid: e3a313a1e168e3341b452acb65cf7287, type: 3}
    - {fileID: 21300028, guid: e3a313a1e168e3341b452acb65cf7287, type: 3}
    - {fileID: 21300006, guid: e3a313a1e168e3341b452acb65cf7287, type: 3}
    - {fileID: 21300020, guid: e3a313a1e168e3341b452acb65cf7287, type: 3}
    - {fileID: 21300010, guid: e3a313a1e168e3341b452acb65cf7287, type: 3}
    - {fileID: 21300016, guid: e3a313a1e168e3341b452acb65cf7287, type: 3}
    - {fileID: 21300030, guid: e3a313a1e168e3341b452acb65cf7287, type: 3}
    - {fileID: 21300022, guid: e3a313a1e168e3341b452acb65cf7287, type: 3}
    - {fileID: 21300034, guid: e3a313a1e168e3341b452acb65cf7287, type: 3}
    - {fileID: 21300032, guid: e3a313a1e168e3341b452acb65cf7287, type: 3}
    - {fileID: 21300004, guid: e3a313a1e168e3341b452acb65cf7287, type: 3}
    - {fileID: 21300042, guid: e3a313a1e168e3341b452acb65cf7287, type: 3}
    - {fileID: 21300036, guid: e3a313a1e168e3341b452acb65cf7287, type: 3}
    - {fileID: 21300038, guid: e3a313a1e168e3341b452acb65cf7287, type: 3}
    - {fileID: 21300040, guid: e3a313a1e168e3341b452acb65cf7287, type: 3}
    - {fileID: 21300044, guid: e3a313a1e168e3341b452acb65cf7287, type: 3}
    - {fileID: 21300024, guid: e3a313a1e168e3341b452acb65cf7287, type: 3}
    - {fileID: 21300002, guid: e3a313a1e168e3341b452acb65cf7287, type: 3}
    _newKey:
