%YAML 1.1
%TAG !u! tag:unity3d.com,2011:
--- !u!1001 &100100000
Prefab:
  serializedVersion: 2
  m_Modification:
    m_TransformParent: {fileID: 0}
    m_Modifications: []
    m_RemovedComponents: []
  m_ParentPrefab: {fileID: 0}
  m_RootGameObject: {fileID: 1495382939611232}
  m_IsPrefabParent: 1
--- !u!1 &1495382939611232
GameObject:
  serializedVersion: 5
  m_Component:
  - component: {fileID: 4187098725251347}
  - component: {fileID: 114089488892761463}
  m_Layer: 0
  m_Name: low_SideQuest_HUD_Atlas
  m_TagString: Untagged
  m_Icon: {fileID: 0}
  m_NavMeshLayer: 0
  m_StaticEditorFlags: 0
  m_IsActive: 1
--- !u!4 &4187098725251347
Transform:
  m_GameObject: {fileID: 1495382939611232}
  m_LocalRotation: {x: 0, y: 0, z: 0, w: 1}
  m_LocalPosition: {x: 0, y: 0, z: 0}
  m_LocalScale: {x: 1, y: 1, z: 1}
  m_Children: []
  m_Father: {fileID: 0}
  m_RootOrder: 0
  m_LocalEulerAnglesHint: {x: 0, y: 0, z: 0}
--- !u!114 &114089488892761463
MonoBehaviour:
  m_GameObject: {fileID: 1495382939611232}
  m_Enabled: 1
  m_EditorHideFlags: 0
  m_Script: {fileID: 11500000, guid: e1ca43b8a04ecdc408ca80899d704f18, type: 3}
  m_Name:
  m_EditorClassIdentifier:
  material: {fileID: 2100000, guid: 9dd31b68fbc04af429c21c85eee5edb6, type: 2}
  sprites:
  - name: sidequest_exclaim
    outer:
      serializedVersion: 2
      x: 0
      y: 64.5
      width: 19
      height: 71.5
    inner:
      serializedVersion: 2
      x: 0
      y: 64.5
      width: 19
      height: 71.5
    rotated: 0
    paddingLeft: 0.6315789
    paddingRight: 0.5263158
    paddingTop: 0
    paddingBottom: 0
  - name: sidequest_roundpanel
    outer:
      serializedVersion: 2
      x: 120
      y: 199
      width: 97.5
      height: 57
    inner:
      serializedVersion: 2
      x: 120
      y: 199
      width: 97.5
      height: 57
    rotated: 0
    paddingLeft: 0.02051282
    paddingRight: 0.005128205
    paddingTop: 0.02631579
    paddingBottom: 0.00877193
  - name: sidequest_roundframe
    outer:
      serializedVersion: 2
      x: 0
      y: 136.5
      width: 119.5
      height: 119.5
    inner:
      serializedVersion: 2
      x: 0
      y: 136.5
      width: 119.5
      height: 119.5
    rotated: 0
    paddingLeft: 0.05439331
    paddingRight: 0.0167364
    paddingTop: 0.05439331
    paddingBottom: 0.0167364
  - name: sidequest_dialog
    outer:
      serializedVersion: 2
      x: 194
      y: 150.5
      width: 48
      height: 48
    inner:
      serializedVersion: 2
      x: 209
      y: 165.5
      width: 18
      height: 18
    rotated: 0
    paddingLeft: 0
    paddingRight: 0
    paddingTop: 0
    paddingBottom: 0
  - name: Tutorial_Arrow
    outer:
      serializedVersion: 2
      x: 120
      y: 142
      width: 73.5
      height: 56.5
    inner:
      serializedVersion: 2
      x: 120
      y: 142
      width: 73.5
      height: 56.5
    rotated: 0
    paddingLeft: 0.01360544
    paddingRight: 0.006802721
    paddingTop: 0.008849557
    paddingBottom: 0.008849557
  mCoordinates: 0
  mPixelSize: 2
  mReplacement: {fileID: 0}
