%YAML 1.1
%TAG !u! tag:unity3d.com,2011:
--- !u!114 &11400000
MonoBehaviour:
  m_GameObject: {fileID: 0}
  m_Enabled: 1
  m_EditorHideFlags: 0
  m_Script: {fileID: 11500000, guid: 352c61ef6035fcf4a852fb395449cec1, type: 3}
  m_Name: SideQuest_BearOnSkates_AtlasUguiMap
  m_EditorClassIdentifier:
  spriteMap:
    _keys:
    - SideQuest_BearOnSkates_done
    - SideQuest_BearOnSkates_give
    - SideQuest_BearOnSkates_item
    _values:
    - {fileID: 21300002, guid: c783b018e70f2804883eb0339dfa1895, type: 3}
    - {fileID: 21300004, guid: c783b018e70f2804883eb0339dfa1895, type: 3}
    - {fileID: 21300000, guid: c783b018e70f2804883eb0339dfa1895, type: 3}
    _newKey:
