%YAML 1.1
%TAG !u! tag:unity3d.com,2011:
--- !u!114 &11400000
MonoBehaviour:
  m_GameObject: {fileID: 0}
  m_Enabled: 1
  m_EditorHideFlags: 0
  m_Script: {fileID: 11500000, guid: 352c61ef6035fcf4a852fb395449cec1, type: 3}
  m_Name: SideQuest_TreeTrunks_AtlasUguiMap
  m_EditorClassIdentifier:
  spriteMap:
    _keys:
    - SideQuest_TreeTrunks_done
    - SideQuest_TreeTrunks_give
    - SideQuest_TreeTrunks_item
    _values:
    - {fileID: 21300002, guid: f5dabe299b3e29f4cbf3c1293e2a09a7, type: 3}
    - {fileID: 21300000, guid: f5dabe299b3e29f4cbf3c1293e2a09a7, type: 3}
    - {fileID: 21300004, guid: f5dabe299b3e29f4cbf3c1293e2a09a7, type: 3}
    _newKey:
