%YAML 1.1
%TAG !u! tag:unity3d.com,2011:
--- !u!114 &11400000
MonoBehaviour:
  m_GameObject: {fileID: 0}
  m_Enabled: 1
  m_EditorHideFlags: 0
  m_Script: {fileID: 11500000, guid: 352c61ef6035fcf4a852fb395449cec1, type: 3}
  m_Name: SideQuest_Newt_AtlasUguiMap
  m_EditorClassIdentifier:
  spriteMap:
    _keys:
    - SideQuest_Newt_done
    - SideQuest_Newt_give
    - SideQuest_Newt_item
    _values:
    - {fileID: 21300000, guid: a1b216e4e11cafb43b5bc9e06dd146a5, type: 3}
    - {fileID: 21300004, guid: a1b216e4e11cafb43b5bc9e06dd146a5, type: 3}
    - {fileID: 21300002, guid: a1b216e4e11cafb43b5bc9e06dd146a5, type: 3}
    _newKey:
